-- This test cannot be run in a single transcation
-- This test must be run on a database named 'contrib_regression'
CREATE EXTENSION IF NOT EXISTS anon CASCADE;
-- Dynamic masking
SELECT anon.start_dynamic_masking();
 start_dynamic_masking 
-----------------------
 t
(1 row)

SET anon.salt TO 'x';
CREATE TABLE phone (
  phone_owner  TEXT,
  phone_number TEXT
);
INSERT INTO phone VALUES
('Omar Little','410-719-9009'),
('Russell Bell','410-617-7308'),
('Avon Barksdale','410-385-2983');
CREATE TABLE phonecall (
  call_id INT,
  call_sender TEXT,
  call_receiver TEXT,
  call_start_time TIMESTAMP WITH TIME ZONE,
  call_end_time TIMESTAMP WITH TIME ZONE
);
INSERT INTO phonecall VALUES
(834,'410-617-7308','410-385-2983','2004-05-17 09:41:01.859137+00','2004-05-17 09:44:24.119237+00'),
(835,'410-385-2983','410-719-9009','2004-05-17 11:22:51.859137+00','2004-05-17 11:34:18.119237+00');
SECURITY LABEL FOR anon ON COLUMN phone.phone_owner
IS 'MASKED WITH FUNCTION concat(anon.pseudo_first_name(phone_owner),$$ $$,anon.pseudo_last_name(phone_owner))';
SECURITY LABEL FOR anon ON COLUMN phone.phone_number
IS 'MASKED WITH FUNCTION anon.hash(phone_number)';
SECURITY LABEL FOR anon ON COLUMN phonecall.call_sender
IS 'MASKED WITH FUNCTION anon.hash(call_sender)';
SECURITY LABEL FOR anon ON COLUMN phonecall.call_receiver
IS 'MASKED WITH FUNCTION anon.hash(call_receiver)';
-- ROLE
CREATE ROLE jimmy_mcnulty LOGIN;
SECURITY LABEL FOR anon ON ROLE jimmy_mcnulty IS 'MASKED';
SELECT anon.mask_update();
 mask_update 
-------------
 t
(1 row)

-- Jimmy reads the phone book
\! psql contrib_regression -U jimmy_mcnulty -c 'SELECT * FROM phone'
   phone_owner   |                           phone_number                           
-----------------+------------------------------------------------------------------
 Honora Crist    | 1c807c29e41f1427077052c70a7d6e50e7ae881363937176a3b79536d6c3dd06
 Clotilda Ernser | 90eba4cd848f3f9c1c42d29142d00311e4dabcc5ec6c9d246a1a88d8eff79c99
 Florencio Hyatt | 2ff3e01ff2c5b76d5921ad323ad9d334e3257eb407293941b60c7ab38d90a392
(3 rows)

-- Jimmy joins table to get the call history
\! psql contrib_regression -U jimmy_mcnulty -c 'SELECT p1.phone_owner as "from", p2.phone_owner as "to", c.call_start_time FROM phonecall c JOIN phone p1 ON c.call_sender = p1.phone_number JOIN phone p2 ON c.call_receiver = p2.phone_number'
      from       |       to        |           call_start_time           
-----------------+-----------------+-------------------------------------
 Florencio Hyatt | Honora Crist    | Mon May 17 04:22:51.859137 2004 PDT
 Clotilda Ernser | Florencio Hyatt | Mon May 17 02:41:01.859137 2004 PDT
(2 rows)

-- Jimmy tries to find the salt :-)
SET ROLE jimmy_mcnulty;
-- SHOULD FAIL
DO $$
BEGIN
  SHOW anon.salt;
  EXCEPTION WHEN insufficient_privilege
  THEN RAISE NOTICE 'insufficient_privilege';
END$$;
NOTICE:  insufficient_privilege
DO $$
BEGIN
  SHOW anon.algorithm;
  EXCEPTION WHEN insufficient_privilege
  THEN RAISE NOTICE 'insufficient_privilege';
END$$;
NOTICE:  insufficient_privilege
SELECT COUNT(name)=3 FROM pg_settings WHERE name LIKE 'anon.%';
 ?column? 
----------
 t
(1 row)

RESET ROLE;
SELECT COUNT(name)=5 FROM pg_settings WHERE name LIKE 'anon.%';
 ?column? 
----------
 t
(1 row)

-- Bug #259 - anon should not interact with other extensions
CREATE EXTENSION pg_stat_statements;
-- STOP
SELECT anon.stop_dynamic_masking();
NOTICE:  The previous priviledges of 'jimmy_mcnulty' are not restored. You need to grant them manually.
 stop_dynamic_masking 
----------------------
 t
(1 row)

--  CLEAN
DROP TABLE phonecall CASCADE;
DROP TABLE phone CASCADE;
DROP EXTENSION anon CASCADE;
DROP EXTENSION pgcrypto;
REASSIGN OWNED BY jimmy_mcnulty TO postgres;
DROP OWNED BY jimmy_mcnulty CASCADE;
DROP ROLE jimmy_mcnulty;
-- Bug #259
SELECT TRUE AS pg_stat_statements_is_still_here
FROM pg_extension
WHERE extname = 'pg_stat_statements';
 pg_stat_statements_is_still_here 
----------------------------------
 t
(1 row)

